[gd_scene load_steps=4 format=1]

[ext_resource path="res://Scripts/ball.gd" type="Script" id=1]
[ext_resource path="res://Sprites/ball.png" type="Texture" id=2]

[sub_resource type="RectangleShape2D" id=1]

custom_solver_bias = 0.0
extents = Vector2( 4, 4 )

[node name="Ball" type="RigidBody2D"]

editor/display_folded = true
input/pickable = false
shapes/0/shape = SubResource( 1 )
shapes/0/transform = Matrix32( 1, 0, 0, 1, 0, 0 )
shapes/0/trigger = false
collision/layers = 1
collision/mask = 1
mode = 2
mass = 1.0
friction = 0.0
bounce = 1.0
gravity_scale = 0.0
custom_integrator = false
continuous_cd = 0
contacts_reported = 1
contact_monitor = true
sleeping = false
can_sleep = true
velocity/linear = Vector2( 200, -200 )
velocity/angular = 0.0
damp_override/linear = 0.0
damp_override/angular = 0.0
script/script = ExtResource( 1 )
speedUp = 4

[node name="Sprite" type="Sprite" parent="."]

transform/scale = Vector2( 4, 4 )
texture = ExtResource( 2 )
__meta__ = {
"_edit_lock_": true
}

[node name="CollisionShape2D" type="CollisionShape2D" parent="."]

shape = SubResource( 1 )
trigger = false
_update_shape_index = 0


